#Acceptor            DonorH         Donor   Frames         Frac      AvgDist       AvgAng
CYS_85@SG       LYS_144@HZ1    LYS_144@NZ       88       0.0400       3.4160      83.2288
CYS_85@SG       LYS_144@HZ2    LYS_144@NZ       88       0.0400       3.4160      79.4528
CYS_85@SG       LYS_144@HZ3    LYS_144@NZ       88       0.0400       3.4160      98.8213
