#Acceptor            DonorH         Donor   Frames         Frac      AvgDist       AvgAng
CYS_86@SG       LYS_145@HZ1    LYS_145@NZ       35       0.0350       3.6854      99.6103
CYS_86@SG       LYS_145@HZ2    LYS_145@NZ       35       0.0350       3.6854      72.4905
CYS_86@SG       LYS_145@HZ3    LYS_145@NZ       35       0.0350       3.6854      77.2274
