#Acceptor            DonorH         Donor   Frames         Frac      AvgDist       AvgAng
CYS_86@SG       LYS_145@HZ1    LYS_145@NZ      921       0.9210       3.0637      81.9143
CYS_86@SG       LYS_145@HZ2    LYS_145@NZ      921       0.9210       3.0637      93.1433
CYS_86@SG       LYS_145@HZ3    LYS_145@NZ      921       0.9210       3.0637     101.1447
